<?xml version="1.0" encoding="utf-8"?>
<!-- Generator: Adobe Illustrator 17.1.0, SVG Export Plug-In . SVG Version: 6.00 Build 0)  -->
<!DOCTYPE svg PUBLIC "-//W3C//DTD SVG 1.1//EN" "http://www.w3.org/Graphics/SVG/1.1/DTD/svg11.dtd">
<svg version="1.1" id="Layer_1" xmlns="http://www.w3.org/2000/svg" xmlns:xlink="http://www.w3.org/1999/xlink" x="0px" y="0px"
	 viewBox="0 0 20 27" enable-background="new 0 0 20 27" xml:space="preserve">
<g>
	<defs>
		<rect id="SVGID_1_" width="20" height="27"/>
	</defs>
	<clipPath id="SVGID_2_">
		<use xlink:href="#SVGID_1_"  overflow="visible"/>
	</clipPath>
	<path clip-path="url(#SVGID_2_)" fill-rule="evenodd" clip-rule="evenodd" fill="#000" d="M16,1h2c0.5,0,1,0.4,1,1v23
		c0,0.5-0.4,1-1,1H3c-0.5,0-1-0.4-1-1v-1h1v-1H2v-3h1v-1H2v-3h1v-1H2v-3h1v-1H2V8h1V7H2V4h1V3H2V2c0-0.5,0.4-1,1-1h7v12l3-3l3,3V1z
		 M1,16v3H0v1h1v3H0v1h1v1c0,1.1,0.9,2,2,2h15c1.1,0,2-0.9,2-2V2c0-1.1-0.9-2-2-2H3C1.9,0,1,0.9,1,2v1H0v1h1v3H0v1h1v3H0v1h1v3H0v1
		H1z M11,1v9.6l2-2l2,2V1H11z"/>
</g>
</svg>
