<?xml version="1.0" encoding="utf-8"?>
<!-- Generator: Adobe Illustrator 17.1.0, SVG Export Plug-In . SVG Version: 6.00 Build 0)  -->
<!DOCTYPE svg PUBLIC "-//W3C//DTD SVG 1.1//EN" "http://www.w3.org/Graphics/SVG/1.1/DTD/svg11.dtd">
<svg version="1.1" id="Layer_1" xmlns="http://www.w3.org/2000/svg" xmlns:xlink="http://www.w3.org/1999/xlink" x="0px" y="0px"
	 viewBox="0 0 26.2 20.9" enable-background="new 0 0 26.2 20.9" xml:space="preserve">
<g>
	<defs>
		<rect id="SVGID_1_" y="0" width="26.2" height="20.9"/>
	</defs>
	<clipPath id="SVGID_2_">
		<use xlink:href="#SVGID_1_"  overflow="visible"/>
	</clipPath>
	<line clip-path="url(#SVGID_2_)" fill="none" stroke="#1D1D1B" stroke-miterlimit="10" x1="0" y1="20.4" x2="26.2" y2="20.4"/>
	
		<rect x="3.9" y="7.8" clip-path="url(#SVGID_2_)" fill="none" stroke="#1D1D1B" stroke-miterlimit="10" width="3.8" height="12.6"/>
	
		<rect x="11.2" y="4.2" clip-path="url(#SVGID_2_)" fill="none" stroke="#1D1D1B" stroke-miterlimit="10" width="3.8" height="16.2"/>
	
		<rect x="18.5" y="0.5" clip-path="url(#SVGID_2_)" fill="none" stroke="#1D1D1B" stroke-miterlimit="10" width="3.8" height="19.9"/>
</g>
</svg>
