<svg  viewBox="0 0 103 30" fill="none" xmlns="http://www.w3.org/2000/svg">
<path d="M4.83429 4.5522H3.11785L4.50129 1.47928H4.51927L4.83429 4.5522ZM4.98307 5.91966L5.13185 7.13485H7.02353L6.13335 0.0673828H3.31356L0 7.13485H1.92962L2.48529 5.91966H4.98307Z" fill="#474847"/>
<path d="M12.4904 2.60162C12.5263 2.39443 12.5458 2.2806 12.5458 2.16877C12.5458 1.77286 12.1464 1.64055 11.5173 1.64055C10.4579 1.64055 10.3007 1.97905 10.1249 2.98805C9.87279 4.41043 9.82636 4.67403 9.82636 4.88172C9.82636 5.37149 10.05 5.58817 10.8294 5.58817C11.5992 5.58817 12.0261 5.56021 12.1649 4.4948H14.077C13.762 6.70151 12.9172 7.22823 10.744 7.22823C9.09495 7.22823 7.86179 7.12488 7.86179 5.39945C7.86179 5.14533 7.89673 4.80584 8.25969 2.6855C8.6591 0.348979 9.96665 0 12.0071 0C13.6152 0 14.5124 0.395909 14.5124 1.68698C14.5124 1.88469 14.4869 2.09188 14.4025 2.60112H12.4904V2.60162Z" fill="#474847"/>
<path d="M19.4525 2.60162C19.4879 2.39443 19.5069 2.2806 19.5069 2.16877C19.5069 1.77286 19.107 1.64055 18.4764 1.64055C17.4185 1.64055 17.2613 1.97905 17.0845 2.98805C16.8344 4.41043 16.788 4.67403 16.788 4.88172C16.788 5.37149 17.0111 5.58817 17.79 5.58817C18.5593 5.58817 18.9872 5.56021 19.1275 4.4948H21.0386C20.7236 6.70151 19.8774 7.22823 17.7076 7.22823C16.0546 7.22823 14.8209 7.12488 14.8209 5.39945C14.8209 5.14533 14.8583 4.80584 15.2188 2.6855C15.6182 0.348979 16.9278 0 18.9687 0C20.5748 0 21.4745 0.395909 21.4745 1.68698C21.4745 1.88469 21.4465 2.09188 21.3641 2.60112H19.4525V2.60162Z" fill="#474847"/>
<path d="M24.8979 5.58865C24.1091 5.58865 23.7576 5.49479 23.7576 4.8822C23.7576 4.7504 23.7671 4.58065 24.0726 2.79931C24.2588 1.74488 24.6208 1.64103 25.5844 1.64103C26.3847 1.64103 26.7366 1.71542 26.7366 2.32851C26.7366 2.46081 26.7272 2.61159 26.4206 4.39243C26.2344 5.44786 25.8624 5.58865 24.8979 5.58865ZM24.6128 7.22871C26.4945 7.22871 27.9149 6.77688 28.2953 4.59962C28.6837 2.33799 28.7032 2.10185 28.7032 1.88567C28.7032 0.320501 27.533 0.000976562 25.8724 0.000976562C23.9897 0.000976562 22.5888 0.425344 22.1984 2.6021C21.809 4.79833 21.79 5.09888 21.79 5.31606C21.7895 6.88022 22.9578 7.22871 24.6128 7.22871Z" fill="#474847"/>
<path d="M31.1551 5.4948H33.575L34.5116 0.0673828H36.3693L35.4312 5.4948H36.0073L35.4422 8.74645H33.6778L33.9554 7.13485H29.0092L30.2354 0.0673828H32.0897L31.1551 5.4948Z" fill="#474847"/>
<path d="M38.567 4.72145H38.6329L41.612 0.0673828H44.0523L42.8267 7.13485H41.0633L41.8736 2.47929H41.8072L38.9115 7.13485H36.3873L37.6109 0.0673828H39.3768L38.567 4.72145Z" fill="#474847"/>
<path d="M48.313 4.5522H46.5961L47.978 1.47928H47.997L48.313 4.5522ZM48.4603 5.91966L48.6101 7.13485H50.5022L49.6121 0.0673828H46.7903L43.4767 7.13485H45.4088L45.965 5.91966H48.4603Z" fill="#474847"/>
<path d="M53.4363 5.4948H55.8577L56.7954 0.0673828H58.6496L57.7135 5.4948H58.2876L57.724 8.74645H55.9586L56.2367 7.13485H51.291L52.5162 0.0673828H54.372L53.4363 5.4948Z" fill="#474847"/>
<path d="M60.8513 4.72145H60.9137L63.8948 0.0673828H66.3351L65.11 7.13485H63.3471L64.1534 2.47929H64.0895L61.1928 7.13485H58.6706L59.8947 0.0673828H61.6576L60.8513 4.72145Z" fill="#474847"/>
<path d="M70.78 3.10186H69.5274C69.0626 3.10186 68.794 2.95109 68.794 2.55468C68.794 2.44085 68.8404 2.2057 68.8764 2.07439C68.9792 1.75487 69.1829 1.61208 69.6472 1.61208H71.0391L70.78 3.10186ZM70.084 7.13485H71.9403L73.1645 0.0673828H69.6018C67.9507 0.0673828 67.2343 0.782816 66.9672 2.30055C66.9208 2.54519 66.9008 2.76187 66.9008 2.96057C66.9008 3.68599 67.1889 4.11885 67.8474 4.4204L65.8608 7.13535H67.9867L69.6392 4.64806H70.5119L70.084 7.13485Z" fill="#474847"/>
<path d="M6.54226 24.9633H7.17432C7.72 24.9633 7.94517 25.1705 7.94517 25.6992C7.94517 25.8505 7.9242 26.0377 7.88925 26.2459C7.72001 27.2154 7.42494 27.4995 6.73747 27.4995H6.10541L6.54226 24.9633ZM5.708 29.7791L5.83881 29.0447H6.77391C8.62216 29.0447 9.41947 28.4226 9.8009 26.2459C9.87379 25.8405 9.91223 25.4825 9.91223 25.171C9.91223 23.8614 9.24374 23.4186 7.75046 23.4186H6.81036L6.93168 22.7122H5.07694L4.95613 23.4186H4.01103C2.17277 23.4186 1.35649 24.0971 0.984041 26.2459C0.909652 26.6608 0.872711 27.0277 0.872711 27.3383C0.872711 28.6488 1.54121 29.0447 3.026 29.0447H3.98208L3.85027 29.7791H5.708ZM4.25067 27.499H3.59116C3.06344 27.499 2.83977 27.3293 2.83977 26.8106C2.83977 26.6508 2.85924 26.4721 2.89569 26.2454C3.05345 25.3213 3.34153 24.9633 4.04697 24.9633H4.68752L4.25067 27.499Z" fill="#474847"/>
<path d="M12.388 27.3677H12.4549L15.435 22.7122H17.8739L16.6482 29.7791H14.8848L15.6931 25.1241H15.6277L12.7325 29.7791H10.2078L11.4335 22.7122H13.1958L12.388 27.3677Z" fill="#474847"/>
<path d="M21.168 29.7791H19.3122L20.2493 24.3512H18.3741L18.6627 22.7122H24.2668L23.9813 24.3512H22.1051L21.168 29.7791Z" fill="#474847"/>
<path d="M26.4491 25.3697H28.871L29.3353 22.7122H31.189L29.9663 29.7791H28.1096L28.5924 27.0088H26.1705L25.6877 29.7791H23.8305L25.0556 22.7122H26.9119L26.4491 25.3697Z" fill="#474847"/>
<path d="M33.7597 25.5479H36.7303L36.5066 26.8575H33.5405L33.2964 28.2334H36.5271L36.258 29.7791H31.1715L32.3982 22.7122H37.4157L37.1481 24.2569H33.9848L33.7597 25.5479Z" fill="#474847"/>
<path d="M42.2895 25.2469C42.3274 25.0402 42.3439 24.9258 42.3439 24.8135C42.3439 24.4176 41.945 24.2853 41.3149 24.2853C40.2565 24.2853 40.0993 24.6233 39.923 25.6333C39.6719 27.0562 39.6245 27.3198 39.6245 27.5275C39.6245 28.0162 39.8466 28.2334 40.6285 28.2334C41.3988 28.2334 41.8247 28.205 41.965 27.141H43.8766C43.5596 29.3458 42.7164 29.8735 40.5446 29.8735C38.8916 29.8735 37.6579 29.7696 37.6579 28.0457C37.6579 27.7911 37.6938 27.4516 38.0578 25.3312C38.4567 22.9937 39.7652 22.6457 41.8072 22.6457C43.4118 22.6457 44.313 23.0406 44.313 24.3317C44.313 24.5304 44.2845 24.7376 44.2006 25.2464H42.2895V25.2469Z" fill="#474847"/>
<path d="M48.7114 27.197H46.994L48.3779 24.1256H48.3964L48.7114 27.197ZM48.8602 28.5639L49.0079 29.7791H50.9011L50.0115 22.7122H47.1897L43.8771 29.7791H45.8067L46.3619 28.5639H48.8602Z" fill="#474847"/>
<path d="M7.91572 11.7345L6.69004 18.8025H4.83431L5.77191 13.3736H3.35052L2.41342 18.8025H0.557678L1.78136 11.7345H7.91572Z" fill="#474847"/>
<path d="M10.7085 13.2802H11.9806C12.5183 13.2802 12.7051 13.411 12.7051 13.7879C12.7051 13.9113 12.6766 14.0715 12.6471 14.2497C12.4829 15.1649 12.3336 15.2962 11.6287 15.2962H10.3556L10.7085 13.2802ZM10.0964 16.8424H11.7405C13.6781 16.8424 14.2183 16.2208 14.5593 14.2323C14.6162 13.8923 14.6531 13.6012 14.6531 13.3376C14.6531 12.1674 14.0306 11.7345 12.6197 11.7345H9.12289L7.89722 18.802H9.75295L10.0964 16.8424Z" fill="#474847"/>
<path d="M18.0955 17.2558C17.3087 17.2558 16.9542 17.1634 16.9542 16.5488C16.9542 16.4175 16.9642 16.2478 17.2698 14.4674C17.456 13.411 17.8165 13.3086 18.784 13.3086C19.5808 13.3086 19.9353 13.383 19.9353 13.9961C19.9353 14.1279 19.9248 14.2787 19.6183 16.059C19.4331 17.116 19.0611 17.2558 18.0955 17.2558ZM17.808 18.8963C19.6932 18.8963 21.112 18.4445 21.493 16.2672C21.8824 14.0051 21.8999 13.77 21.8999 13.5533C21.8999 11.9896 20.7311 11.6681 19.0701 11.6681C17.1859 11.6681 15.7845 12.092 15.3961 14.2692C15.0071 16.4649 14.9877 16.766 14.9877 16.9837C14.9872 18.5473 16.1579 18.8963 17.808 18.8963Z" fill="#474847"/>
<path d="M28.0532 13.9866H28.6838C29.2319 13.9866 29.4541 14.1948 29.4541 14.7215C29.4541 14.8723 29.4351 15.061 29.3982 15.2687C29.2319 16.2393 28.9369 16.5224 28.2474 16.5224H27.6174L28.0532 13.9866ZM27.2189 18.8025L27.3492 18.0676H28.2844C30.1331 18.0676 30.9309 17.446 31.3103 15.2687C31.3837 14.8633 31.4217 14.5049 31.4217 14.1948C31.4217 12.8848 30.7527 12.4414 29.2599 12.4414H28.3233L28.4431 11.7345H26.5874L26.4671 12.4414H25.5205C23.6817 12.4414 22.8664 13.1199 22.4935 15.2687C22.4201 15.6836 22.3831 16.0506 22.3831 16.3611C22.3831 17.6716 23.0517 18.0671 24.5364 18.0671H25.492L25.3617 18.802H27.2189V18.8025ZM25.7611 16.5224H25.1026C24.5729 16.5224 24.3497 16.3526 24.3497 15.8339C24.3497 15.6736 24.3692 15.4949 24.4041 15.2687C24.5639 14.3441 24.852 13.9866 25.5564 13.9866H26.1965L25.7611 16.5224Z" fill="#474847"/>
<path d="M34.3084 14.5708H37.2799L37.0543 15.8813H34.0862L33.8425 17.2558H37.0737L36.8061 18.8025H31.7207L32.9454 11.7345H37.9654L37.6943 13.2802H34.5325L34.3084 14.5708Z" fill="#474847"/>
<path d="M42.8377 14.2692C42.8751 14.062 42.8911 13.9487 42.8911 13.8359C42.8911 13.44 42.4922 13.3087 41.8611 13.3087C40.8037 13.3087 40.6459 13.6472 40.4702 14.6552C40.2201 16.0785 40.1736 16.3416 40.1736 16.5488C40.1736 17.0396 40.3963 17.2558 41.1766 17.2558C41.945 17.2558 42.3724 17.2283 42.5141 16.1634H44.4238C44.1073 18.3686 43.2645 18.8958 41.0928 18.8958C39.4397 18.8958 38.2056 18.793 38.2056 17.0681C38.2056 16.8134 38.243 16.4739 38.6055 14.3531C39.0034 12.0176 40.3114 11.6676 42.3554 11.6676C43.96 11.6676 44.8606 12.0635 44.8606 13.3546C44.8606 13.5528 44.8327 13.7605 44.7488 14.2687H42.8377V14.2692Z" fill="#474847"/>
<path d="M49.7968 14.2692C49.8337 14.062 49.8537 13.9487 49.8537 13.8359C49.8537 13.44 49.4533 13.3087 48.8237 13.3087C47.7643 13.3087 47.6065 13.6472 47.4293 14.6552C47.1812 16.0785 47.1337 16.3416 47.1337 16.5488C47.1337 17.0396 47.3569 17.2558 48.1348 17.2558C48.9061 17.2558 49.3325 17.2283 49.4718 16.1634H51.3829C51.0674 18.3686 50.2251 18.8958 48.0509 18.8958C46.3998 18.8958 45.1662 18.793 45.1662 17.0681C45.1662 16.8134 45.2031 16.4739 45.5646 14.3531C45.9635 12.0176 47.2725 11.6676 49.314 11.6676C50.9201 11.6676 51.8193 12.0635 51.8193 13.3546C51.8193 13.5528 51.7928 13.7605 51.7099 14.2687H49.7968V14.2692Z" fill="#474847"/>
<path d="M54.1213 16.3901H54.1877L57.1658 11.7345H59.6052L58.3815 18.8025H56.6176L57.4259 14.1469H57.362L54.4658 18.8025H51.9406L53.1648 11.7345H54.9291L54.1213 16.3901Z" fill="#474847"/>
<path d="M62.8918 17.2558C62.1025 17.2558 61.749 17.1634 61.749 16.5488C61.749 16.4175 61.7595 16.2478 62.0655 14.4674C62.2512 13.411 62.6147 13.3086 63.5778 13.3086C64.3766 13.3086 64.729 13.383 64.729 13.9961C64.729 14.1279 64.72 14.2787 64.4145 16.059C64.2288 17.116 63.8558 17.2558 62.8918 17.2558ZM62.6052 18.8963C64.4879 18.8963 65.9068 18.4445 66.2892 16.2672C66.6776 14.0051 66.6956 13.77 66.6956 13.5533C66.6956 11.9896 65.5268 11.6681 63.8648 11.6681C61.9821 11.6681 60.5807 12.092 60.1898 14.2692C59.8004 16.4649 59.7839 16.766 59.7839 16.9837C59.7839 18.5473 60.9517 18.8963 62.6052 18.8963Z" fill="#474847"/>
<path d="M69.4805 14.392H71.9014L72.3667 11.7345H74.2219L72.9962 18.8025H71.1415L71.6233 16.0316H69.2009L68.7186 18.8025H66.8639L68.088 11.7345H69.9453L69.4805 14.392Z" fill="#474847"/>
<path d="M78.4825 16.2208H76.7656L78.148 13.1479H78.167L78.4825 16.2208ZM78.6298 17.5868L78.7796 18.802H80.6723L79.7806 11.7345H76.9603L73.6472 18.802H75.5769L76.133 17.5868H78.6298Z" fill="#474847"/>
<path d="M88.932 11.7345L87.7053 18.802H85.8506L86.7872 13.3731H84.7747L84.2639 16.3411C83.9948 17.8878 83.1596 18.8764 81.7482 18.8764C81.3503 18.8764 81.1011 18.8494 80.8221 18.793L81.0822 17.2648C81.2399 17.3217 81.3867 17.3312 81.6378 17.3312C82.1481 17.3312 82.3727 17.0681 82.4906 16.3696L83.2989 11.734H88.932V11.7345Z" fill="#474847"/>
<path d="M92.2066 17.2558C91.4192 17.2558 91.0658 17.1634 91.0658 16.5488C91.0658 16.4175 91.0753 16.2478 91.3823 14.4674C91.5665 13.411 91.9295 13.3086 92.895 13.3086C93.6923 13.3086 94.0443 13.383 94.0443 13.9961C94.0443 14.1279 94.0348 14.2787 93.7293 16.059C93.5436 17.116 93.1731 17.2558 92.2066 17.2558ZM91.9195 18.8963C93.8042 18.8963 95.2231 18.4445 95.605 16.2672C95.9929 14.0051 96.0124 13.77 96.0124 13.5533C96.0124 11.9896 94.8421 11.6681 93.1811 11.6681C91.2974 11.6681 89.8965 12.092 89.5071 14.2692C89.1167 16.4649 89.0987 16.766 89.0987 16.9837C89.0987 18.5473 90.269 18.8963 91.9195 18.8963Z" fill="#474847"/>
<path d="M98.9915 13.2802H100.551C100.931 13.2802 101.06 13.383 101.06 13.6377C101.06 13.7046 101.051 13.7879 101.032 13.8828C100.931 14.448 100.754 14.5618 100.105 14.5618H98.7688L98.9915 13.2802ZM96.1786 18.8025H99.8727C101.348 18.8025 102.183 18.5668 102.488 16.8329C102.526 16.6167 102.545 16.408 102.545 16.2298C102.545 15.6641 102.323 15.2967 101.552 15.2493L101.571 15.1739C102.517 15.0241 102.796 14.4395 102.944 13.5438C102.982 13.3376 103 13.1479 103 12.9881C103 11.9322 102.257 11.7345 101.059 11.7345H97.4033L96.1786 18.8025ZM98.5476 15.8723H99.984C100.487 15.8723 100.708 15.9272 100.708 16.2867C100.708 16.3611 100.698 16.446 100.679 16.5408C100.577 17.116 100.308 17.2563 99.7064 17.2563H98.304L98.5476 15.8723Z" fill="#474847"/>
</svg>
