<?xml version="1.0" encoding="utf-8"?>
<!-- Generator: Adobe Illustrator 17.1.0, SVG Export Plug-In . SVG Version: 6.00 Build 0)  -->
<!DOCTYPE svg PUBLIC "-//W3C//DTD SVG 1.1//EN" "http://www.w3.org/Graphics/SVG/1.1/DTD/svg11.dtd">
<svg version="1.1" id="Layer_1" xmlns="http://www.w3.org/2000/svg" xmlns:xlink="http://www.w3.org/1999/xlink" x="0px" y="0px"
	 viewBox="0 0 9 15" enable-background="new 0 0 9 15" xml:space="preserve">
<path fill="#FFFFFF" d="M0.2,7.9l6.6,6.6c0.3,0.3,0.8,0.3,1.1,0c0.3-0.3,0.3-0.8,0-1L1.8,7.4l6.1-6.1c0.3-0.3,0.3-0.8,0-1.1
	c-0.3-0.3-0.8-0.3-1.1,0L0.2,6.8C-0.1,7.1-0.1,7.6,0.2,7.9z"/>
</svg>
