<svg width="20" height="17" viewBox="0 0 20 17" fill="none" xmlns="http://www.w3.org/2000/svg">
<circle cx="8.5" cy="8.5" r="8.5" fill="#FF2625"/>
<path d="M6.08863 5.25378C5.51871 4.65255 4.5693 4.62716 3.96807 5.19708C3.36683 5.767 3.34145 6.71641 3.91137 7.31765L6.08863 5.25378ZM9.46875 11L8.38012 12.0319C8.66338 12.3308 9.05701 12.5 9.46875 12.5C9.88049 12.5 10.2741 12.3308 10.5574 12.0319L9.46875 11ZM19.0886 3.03193C19.6586 2.4307 19.6332 1.48129 19.0319 0.911369C18.4307 0.341449 17.4813 0.366834 16.9114 0.968068L19.0886 3.03193ZM3.91137 7.31765L8.38012 12.0319L10.5574 9.96807L6.08863 5.25378L3.91137 7.31765ZM10.5574 12.0319L19.0886 3.03193L16.9114 0.968068L8.38012 9.96807L10.5574 12.0319Z" fill="white"/>
</svg>
