<svg xmlns="http://www.w3.org/2000/svg" viewBox="0 0 50 50" id="place">
    <path d="M40 17c0 13.604-15 31-15 31S10 30.928 10 17c0-8.285 6.715-15 15-15 8.284 0 15 6.715 15 15z"></path>
    <circle cx="25" cy="18" r="6"></circle>
</svg>
