<svg version="1.1" id="Layer_1" xmlns="http://www.w3.org/2000/svg" xmlns:xlink="http://www.w3.org/1999/xlink" x="0px" y="0px"
	 viewBox="0 0 25 25" enable-background="new 0 0 25 25" xml:space="preserve">
<path d="M25,16.9c0-3.1-1.8-5.9-4.4-7.2c-0.1,5.9-4.9,10.8-10.9,10.9c1.3,2.7,4.1,4.4,7.2,4.4c1.5,0,2.9-0.4,4.1-1.1L25,25L23.9,21
	C24.6,19.8,25,18.4,25,16.9z"/>
<path d="M19.1,9.5c0-5.3-4.3-9.5-9.5-9.5S0,4.3,0,9.5c0,1.7,0.5,3.4,1.3,4.9L0,19.1l4.7-1.3c1.5,0.9,3.1,1.3,4.9,1.3
	C14.8,19.1,19.1,14.8,19.1,9.5z M8.1,7.3H6.6c0-1.6,1.3-2.9,2.9-2.9s2.9,1.3,2.9,2.9c0,0.8-0.3,1.6-1,2.2l-1.2,1.1v1.1H8.8V10
	l1.7-1.6C10.8,8.1,11,7.7,11,7.3c0-0.8-0.7-1.5-1.5-1.5S8.1,6.5,8.1,7.3z M8.8,13.2h1.5v1.5H8.8V13.2z"/>
</svg>
