<svg width="24" height="16" viewBox="0 0 24 16" fill="none" xmlns="http://www.w3.org/2000/svg">
<path d="M21.8906 0.620117L21.8906 1.85059C20.8945 2.40723 20.0889 2.93457 19.4736 3.43262C18.8291 3.95996 18.3311 4.45801 17.9795 4.92676C17.6279 5.42481 17.3936 5.92285 17.2764 6.4209C17.1299 6.94824 17.0566 7.50488 17.0566 8.09082C17.0566 8.64746 17.1592 9.05762 17.3643 9.32129C17.5693 9.58496 17.8037 9.7168 18.0674 9.7168C18.2432 9.7168 18.5654 9.64355 19.0342 9.49707C19.4736 9.35059 19.8984 9.27734 20.3086 9.27734C21.1289 9.27734 21.832 9.57031 22.418 10.1562C23.0039 10.7422 23.2969 11.46 23.2969 12.3096C23.2969 12.7783 23.1943 13.2178 22.9893 13.6279C22.7842 14.0674 22.5059 14.4482 22.1543 14.7705C21.8027 15.0928 21.3926 15.3418 20.9238 15.5176C20.4551 15.7227 19.957 15.8252 19.4297 15.8252C18.7852 15.8252 18.1553 15.6641 17.54 15.3418C16.9248 15.0488 16.3828 14.6387 15.9141 14.1113C15.4453 13.584 15.0645 12.9541 14.7715 12.2217C14.4785 11.5186 14.332 10.7422 14.332 9.89258C14.332 8.86719 14.5078 7.87109 14.8594 6.9043C15.1816 5.9375 15.6797 5.04395 16.3535 4.22363C16.998 3.43262 17.7891 2.71484 18.7266 2.07031C19.6641 1.45508 20.7187 0.97168 21.8906 0.620117ZM7.82812 0.620118L7.82812 1.85059C6.1289 2.75879 4.89844 3.69629 4.13672 4.66309C3.375 5.65918 2.99414 6.74317 2.99414 7.91504C2.99414 8.58887 3.09668 9.05762 3.30176 9.32129C3.50684 9.58496 3.72656 9.7168 3.96094 9.7168C4.19531 9.7168 4.54687 9.64356 5.01562 9.49707C5.48437 9.35059 5.86523 9.27735 6.1582 9.27735C6.94922 9.27735 7.65234 9.57031 8.26758 10.1563C8.88281 10.7715 9.19043 11.5039 9.19043 12.3535C9.19043 12.8223 9.08789 13.2617 8.88281 13.6719C8.67773 14.1113 8.41406 14.4775 8.0918 14.7705C7.74023 15.0928 7.34473 15.3418 6.90527 15.5176C6.43652 15.7227 5.93848 15.8252 5.41113 15.8252C4.7666 15.8252 4.13672 15.6641 3.52148 15.3418C2.87695 15.0488 2.32031 14.624 1.85156 14.0674C1.35352 13.54 0.958007 12.9102 0.665039 12.1777C0.37207 11.4746 0.225585 10.7129 0.225585 9.89258C0.225585 8.92578 0.401366 7.95899 0.752929 6.99219C1.07519 6.05469 1.55859 5.17578 2.20312 4.35547C2.84766 3.56445 3.63867 2.83203 4.57617 2.1582C5.51367 1.51367 6.59765 1.00098 7.82812 0.620118Z" fill="black"/>
</svg>
